[ {
  "uid" : "3a78fe8d5b508dfb",
  "name" : "Verify the functionality of aim use and manage channels",
  "time" : {
    "start" : 1631708323170,
    "stop" : 1631708334101,
    "duration" : 10931
  },
  "status" : "passed",
  "severity" : "normal"
}, {
  "uid" : "e5d8a5545317856e",
  "name" : "user verify and click the dashboard and check the statistics page",
  "time" : {
    "start" : 1631708334105,
    "stop" : 1631708363032,
    "duration" : 28927
  },
  "status" : "passed",
  "severity" : "normal"
} ]